Case-Study zur Arbeitslosigkeit in Deutschland
…
.panel1-einlesen_alo-auto[

``` r
alo_skip <- read_xlsx(alo_name, sheet = "Gesamt", skip = 8)

*alo_skip
```
]
 
.panel2-einlesen_alo-auto[

```
## # A tibble: 11,219 × 27
##    ...1       Jahresdurchschnitte ...3  Rechtskreis Insgesam…¹ ...5  ...6  ...7 
##    <chr>      <chr>               <chr> <chr>                  <chr> <chr> <chr>
##  1 <NA>       Jahresdurch-schnitt Jahr… 44562                  44593 44621 44652
##  2 Region     2022                2023  1                      2     3     4    
##  3 Deutschla… 2418132.75          2608… 2462162                2427… 2362… 2309…
##  4 01 Schles… 81564.083333333328  8775… 83746                  83077 80512 78034
##  5 01001 Fle… 3970.3333333333335  4131… 3972                   3944  3901  3882 
##  6 01001000 … 3970.3333333333335  4131… 3972                   3944  3901  3882 
##  7 01002 Kie… 10315.166666666666  10581 10154                  10049 9924  9906 
##  8 01002000 … 10315.166666666666  10581 10154                  10049 9924  9906 
##  9 01003 Lüb… 8776.4166666666661  9215… 8783                   8642  8509  8467 
## 10 01003000 … 8776.4166666666661  9215… 8783                   8642  8509  8467 
## # ℹ 11,209 more rows
## # ℹ abbreviated name:
## #   ¹​`Rechtskreis Insgesamt - Bestand an Arbeitslosen - Gesamt...4`
## # ℹ 20 more variables: ...8 <chr>, ...9 <chr>, ...10 <chr>, ...11 <chr>,
## #   ...12 <chr>, ...13 <chr>, ...14 <chr>, ...15 <chr>,
## #   `Rechtskreis Insgesamt - Bestand an Arbeitslosen - Gesamt...16` <chr>,
## #   ...17 <chr>, ...18 <chr>, ...19 <chr>, ...20 <chr>, ...21 <chr>, …
```
…
.panel1-einlesen_alo-auto[

``` r
alo_skip <- read_xlsx(alo_name, sheet = "Gesamt", skip = 8)

alo_skip %>%
* select(c(`...1`, Jahresdurchschnitte, `...3`))
```
]
 
.panel2-einlesen_alo-auto[

```
## # A tibble: 11,219 × 3
##    ...1                            Jahresdurchschnitte ...3               
##    <chr>                           <chr>               <chr>              
##  1 <NA>                            Jahresdurch-schnitt Jahresdurch-schnitt
##  2 Region                          2022                2023               
##  3 Deutschland                     2418132.75          2608671.5          
##  4 01 Schleswig-Holstein           81564.083333333328  87757.333333333328 
##  5 01001 Flensburg, Stadt          3970.3333333333335  4131.333333333333  
##  6 01001000 Flensburg, Stadt       3970.3333333333335  4131.333333333333  
##  7 01002 Kiel, Landeshauptstadt    10315.166666666666  10581              
##  8 01002000 Kiel, Landeshauptstadt 10315.166666666666  10581              
##  9 01003 Lübeck, Hansestadt        8776.4166666666661  9215.5             
## 10 01003000 Lübeck, Hansestadt     8776.4166666666661  9215.5             
## # ℹ 11,209 more rows
```
…
``` r
alo_skip <- read_xlsx(alo_name, sheet = "Gesamt", skip = 8)

alo_skip %>%
  select(c(`...1`, Jahresdurchschnitte, `...3`)) %>%
* mutate(Regionalschluessel = str_extract(`...1`, "[[:digit:]]+"),
*        Gemeinde = str_extract(`...1`, "[A-Z].*"))
```
]
 
.panel2-einlesen_alo-auto[

```
## # A tibble: 11,219 × 5
##    ...1                    Jahresdurchschnitte ...3  Regionalschluessel Gemeinde
##    <chr>                   <chr>               <chr> <chr>              <chr>   
##  1 <NA>                    Jahresdurch-schnitt Jahr… <NA>               <NA>    
##  2 Region                  2022                2023  <NA>               Region  
##  3 Deutschland             2418132.75          2608… <NA>               Deutsch…
##  4 01 Schleswig-Holstein   81564.083333333328  8775… 01                 Schlesw…
##  5 01001 Flensburg, Stadt  3970.3333333333335  4131… 01001              Flensbu…
##  6 01001000 Flensburg, St… 3970.3333333333335  4131… 01001000           Flensbu…
##  7 01002 Kiel, Landeshaup… 10315.166666666666  10581 01002              Kiel, L…
##  8 01002000 Kiel, Landesh… 10315.166666666666  10581 01002000           Kiel, L…
##  9 01003 Lübeck, Hansesta… 8776.4166666666661  9215… 01003              Lübeck,…
## 10 01003000 Lübeck, Hanse… 8776.4166666666661  9215… 01003000           Lübeck,…
## # ℹ 11,209 more rows
```
…
``` r
alo_skip <- read_xlsx(alo_name, sheet = "Gesamt", skip = 8)

alo_skip %>%
  select(c(`...1`, Jahresdurchschnitte, `...3`)) %>%
  mutate(Regionalschluessel = str_extract(`...1`, "[[:digit:]]+"),
         Gemeinde = str_extract(`...1`, "[A-Z].*")) %>%
* mutate(alo = as.numeric(`...3`))
```
]
 
.panel2-einlesen_alo-auto[

```
## # A tibble: 11,219 × 6
##    ...1            Jahresdurchschnitte ...3  Regionalschluessel Gemeinde     alo
##    <chr>           <chr>               <chr> <chr>              <chr>      <dbl>
##  1 <NA>            Jahresdurch-schnitt Jahr… <NA>               <NA>     NA     
##  2 Region          2022                2023  <NA>               Region    2.02e3
##  3 Deutschland     2418132.75          2608… <NA>               Deutsch…  2.61e6
##  4 01 Schleswig-H… 81564.083333333328  8775… 01                 Schlesw…  8.78e4
##  5 01001 Flensbur… 3970.3333333333335  4131… 01001              Flensbu…  4.13e3
##  6 01001000 Flens… 3970.3333333333335  4131… 01001000           Flensbu…  4.13e3
##  7 01002 Kiel, La… 10315.166666666666  10581 01002              Kiel, L…  1.06e4
##  8 01002000 Kiel,… 10315.166666666666  10581 01002000           Kiel, L…  1.06e4
##  9 01003 Lübeck, … 8776.4166666666661  9215… 01003              Lübeck,…  9.22e3
## 10 01003000 Lübec… 8776.4166666666661  9215… 01003000           Lübeck,…  9.22e3
## # ℹ 11,209 more rows
```
…
alo_skip %>%
  select(c(`...1`, Jahresdurchschnitte, `...3`)) %>%
  mutate(Regionalschluessel = str_extract(`...1`, "[[:digit:]]+"),
         Gemeinde = str_extract(`...1`, "[A-Z].*")) %>%
  mutate(alo = as.numeric(`...3`)) %>%
* select(-c(`...1`, Jahresdurchschnitte, `...3`))
```
]
 
.panel2-einlesen_alo-auto[

```
## # A tibble: 11,219 × 3
##    Regionalschluessel Gemeinde                    alo
##    <chr>              <chr>                     <dbl>
##  1 <NA>               <NA>                        NA 
##  2 <NA>               Region                    2023 
##  3 <NA>               Deutschland            2608672.
##  4 01                 Schleswig-Holstein       87757.
##  5 01001              Flensburg, Stadt          4131.
##  6 01001000           Flensburg, Stadt          4131.
##  7 01002              Kiel, Landeshauptstadt   10581 
##  8 01002000           Kiel, Landeshauptstadt   10581 
##  9 01003              Lübeck, Hansestadt        9216.
## 10 01003000           Lübeck, Hansestadt        9216.
## # ℹ 11,209 more rows
```
…
alo_skip %>%
  select(c(`...1`, Jahresdurchschnitte, `...3`)) %>%
  mutate(Regionalschluessel = str_extract(`...1`, "[[:digit:]]+"),
         Gemeinde = str_extract(`...1`, "[A-Z].*")) %>%
  mutate(alo = as.numeric(`...3`)) %>%
  select(-c(`...1`, Jahresdurchschnitte, `...3`)) %>%
* filter(!is.na(alo))
```
]
 
.panel2-einlesen_alo-auto[

```
## # A tibble: 11,177 × 3
##    Regionalschluessel Gemeinde                    alo
##    <chr>              <chr>                     <dbl>
##  1 <NA>               Region                    2023 
##  2 <NA>               Deutschland            2608672.
##  3 01                 Schleswig-Holstein       87757.
##  4 01001              Flensburg, Stadt          4131.
##  5 01001000           Flensburg, Stadt          4131.
##  6 01002              Kiel, Landeshauptstadt   10581 
##  7 01002000           Kiel, Landeshauptstadt   10581 
##  8 01003              Lübeck, Hansestadt        9216.
##  9 01003000           Lübeck, Hansestadt        9216.
## 10 01004              Neumünster, Stadt         3604.
## # ℹ 11,167 more rows
```
…
alo_skip %>%
  select(c(`...1`, Jahresdurchschnitte, `...3`)) %>%
  mutate(Regionalschluessel = str_extract(`...1`, "[[:digit:]]+"),
         Gemeinde = str_extract(`...1`, "[A-Z].*")) %>%
  mutate(alo = as.numeric(`...3`)) %>%
  select(-c(`...1`, Jahresdurchschnitte, `...3`)) %>%
  filter(!is.na(alo))
```
]
 
.panel2-einlesen_alo-auto[

```
## # A tibble: 11,177 × 3
##    Regionalschluessel Gemeinde                    alo
##    <chr>              <chr>                     <dbl>
##  1 <NA>               Region                    2023 
##  2 <NA>               Deutschland            2608672.
##  3 01                 Schleswig-Holstein       87757.
##  4 01001              Flensburg, Stadt          4131.
##  5 01001000           Flensburg, Stadt          4131.
##  6 01002              Kiel, Landeshauptstadt   10581 
##  7 01002000           Kiel, Landeshauptstadt   10581 
##  8 01003              Lübeck, Hansestadt        9216.
##  9 01003000           Lübeck, Hansestadt        9216.
## 10 01004              Neumünster, Stadt         3604.
## # ℹ 11,167 more rows
```
…
---

count: false

.panel1-konsistenz_alo-auto[

``` r
*data_alo
```
]
 
.panel2-konsistenz_alo-auto[

```
## # A tibble: 11,175 × 3
##    Regionalschluessel Gemeinde                  alo
##    <chr>              <chr>                   <dbl>
##  1 01                 Schleswig-Holstein     87757.
##  2 01001              Flensburg, Stadt        4131.
##  3 01001000           Flensburg, Stadt        4131.
##  4 01002              Kiel, Landeshauptstadt 10581 
##  5 01002000           Kiel, Landeshauptstadt 10581 
##  6 01003              Lübeck, Hansestadt      9216.
##  7 01003000           Lübeck, Hansestadt      9216.
##  8 01004              Neumünster, Stadt       3604.
##  9 01004000           Neumünster, Stadt       3604.
## 10 01051              Dithmarschen            4126.
## # ℹ 11,165 more rows
```
…
---

count: false

.panel1-interne_konsistenz1-auto[

``` r
*data_alo
```
]
 
.panel2-interne_konsistenz1-auto[

```
## # A tibble: 11,175 × 3
##    Regionalschluessel Gemeinde                  alo
##    <chr>              <chr>                   <dbl>
##  1 01                 Schleswig-Holstein     87757.
##  2 01001              Flensburg, Stadt        4131.
##  3 01001000           Flensburg, Stadt        4131.
##  4 01002              Kiel, Landeshauptstadt 10581 
##  5 01002000           Kiel, Landeshauptstadt 10581 
##  6 01003              Lübeck, Hansestadt      9216.
##  7 01003000           Lübeck, Hansestadt      9216.
##  8 01004              Neumünster, Stadt       3604.
##  9 01004000           Neumünster, Stadt       3604.
## 10 01051              Dithmarschen            4126.
## # ℹ 11,165 more rows
```
…
---
count: false

.panel1-interne_konsistenz1-auto[

``` r
data_alo %>%
* filter(nchar(Regionalschluessel) == 8)
```
]
 
.panel2-interne_konsistenz1-auto[

```
## # A tibble: 10,736 × 3
##    Regionalschluessel Gemeinde                    alo
##    <chr>              <chr>                     <dbl>
##  1 01001000           Flensburg, Stadt        4131.  
##  2 01002000           Kiel, Landeshauptstadt 10581   
##  3 01003000           Lübeck, Hansestadt      9216.  
##  4 01004000           Neumünster, Stadt       3604.  
##  5 01051001           Albersdorf               123.  
##  6 01051002           Arkebek                    6.08
##  7 01051003           Averlak                    9.75
##  8 01051004           Bargenstedt               14   
##  9 01051005           Barkenholm                 5.17
## 10 01051006           Barlt                     16.6 
## # ℹ 10,726 more rows
```
…
.panel1-interne_konsistenz1-auto[

``` r
data_alo %>%
  filter(nchar(Regionalschluessel) == 8) %>%
* mutate(landkreis = str_extract(Regionalschluessel, "^.{5}"))
```
]
 
.panel2-interne_konsistenz1-auto[

```
## # A tibble: 10,736 × 4
##    Regionalschluessel Gemeinde                    alo landkreis
##    <chr>              <chr>                     <dbl> <chr>    
##  1 01001000           Flensburg, Stadt        4131.   01001    
##  2 01002000           Kiel, Landeshauptstadt 10581    01002    
##  3 01003000           Lübeck, Hansestadt      9216.   01003    
##  4 01004000           Neumünster, Stadt       3604.   01004    
##  5 01051001           Albersdorf               123.   01051    
##  6 01051002           Arkebek                    6.08 01051    
##  7 01051003           Averlak                    9.75 01051    
##  8 01051004           Bargenstedt               14    01051    
##  9 01051005           Barkenholm                 5.17 01051    
## 10 01051006           Barlt                     16.6  01051    
## # ℹ 10,726 more rows
```
…
.panel1-interne_konsistenz1-auto[

``` r
data_alo %>%
  filter(nchar(Regionalschluessel) == 8) %>%
  mutate(landkreis = str_extract(Regionalschluessel, "^.{5}")) %>%
* mutate(bundesland = str_extract(Regionalschluessel, "^.{2}"))
```
]
 
.panel2-interne_konsistenz1-auto[

```
## # A tibble: 10,736 × 5
##    Regionalschluessel Gemeinde                    alo landkreis bundesland
##    <chr>              <chr>                     <dbl> <chr>     <chr>     
##  1 01001000           Flensburg, Stadt        4131.   01001     01        
##  2 01002000           Kiel, Landeshauptstadt 10581    01002     01        
##  3 01003000           Lübeck, Hansestadt      9216.   01003     01        
##  4 01004000           Neumünster, Stadt       3604.   01004     01        
##  5 01051001           Albersdorf               123.   01051     01        
##  6 01051002           Arkebek                    6.08 01051     01        
##  7 01051003           Averlak                    9.75 01051     01        
##  8 01051004           Bargenstedt               14    01051     01        
##  9 01051005           Barkenholm                 5.17 01051     01        
## 10 01051006           Barlt                     16.6  01051     01        
## # ℹ 10,726 more rows
```
…
---

count: false

.panel1-interne_konsistenz2-auto[

``` r
*alo_meta
```
]
 
.panel2-interne_konsistenz2-auto[

```
## # A tibble: 10,736 × 5
##    Regionalschluessel Gemeinde                    alo landkreis bundesland
##    <chr>              <chr>                     <dbl> <chr>     <chr>     
##  1 01001000           Flensburg, Stadt        4131.   01001     01        
##  2 01002000           Kiel, Landeshauptstadt 10581    01002     01        
##  3 01003000           Lübeck, Hansestadt      9216.   01003     01        
##  4 01004000           Neumünster, Stadt       3604.   01004     01        
##  5 01051001           Albersdorf               123.   01051     01        
##  6 01051002           Arkebek                    6.08 01051     01        
##  7 01051003           Averlak                    9.75 01051     01        
##  8 01051004           Bargenstedt               14    01051     01        
##  9 01051005           Barkenholm                 5.17 01051     01        
## 10 01051006           Barlt                     16.6  01051     01        
## # ℹ 10,726 more rows
```
…
---
count: false

.panel1-interne_konsistenz2-auto[

``` r
alo_meta %>%
* group_by(bundesland)
```
]
 
.panel2-interne_konsistenz2-auto[

```
## # A tibble: 10,736 × 5
## # Groups:   bundesland [16]
##    Regionalschluessel Gemeinde                    alo landkreis bundesland
##    <chr>              <chr>                     <dbl> <chr>     <chr>     
##  1 01001000           Flensburg, Stadt        4131.   01001     01        
##  2 01002000           Kiel, Landeshauptstadt 10581    01002     01        
##  3 01003000           Lübeck, Hansestadt      9216.   01003     01        
##  4 01004000           Neumünster, Stadt       3604.   01004     01        
##  5 01051001           Albersdorf               123.   01051     01        
##  6 01051002           Arkebek                    6.08 01051     01        
##  7 01051003           Averlak                    9.75 01051     01        
##  8 01051004           Bargenstedt               14    01051     01        
##  9 01051005           Barkenholm                 5.17 01051     01        
## 10 01051006           Barlt                     16.6  01051     01        
## # ℹ 10,726 more rows
```
…
---

count: false

.panel1-interne_konsistenz3-auto[

``` r
*alo_meta
```
]
 
.panel2-interne_konsistenz3-auto[

```
## # A tibble: 10,736 × 5
##    Regionalschluessel Gemeinde                    alo landkreis bundesland
##    <chr>              <chr>                     <dbl> <chr>     <chr>     
##  1 01001000           Flensburg, Stadt        4131.   01001     01        
##  2 01002000           Kiel, Landeshauptstadt 10581    01002     01        
##  3 01003000           Lübeck, Hansestadt      9216.   01003     01        
##  4 01004000           Neumünster, Stadt       3604.   01004     01        
##  5 01051001           Albersdorf               123.   01051     01        
##  6 01051002           Arkebek                    6.08 01051     01        
##  7 01051003           Averlak                    9.75 01051     01        
##  8 01051004           Bargenstedt               14    01051     01        
##  9 01051005           Barkenholm                 5.17 01051     01        
## 10 01051006           Barlt                     16.6  01051     01        
## # ℹ 10,726 more rows
```
…
---
count: false

.panel1-interne_konsistenz3-auto[

``` r
alo_meta %>%
* group_by(landkreis)
```
]
 
.panel2-interne_konsistenz3-auto[

```
## # A tibble: 10,736 × 5
## # Groups:   landkreis [400]
##    Regionalschluessel Gemeinde                    alo landkreis bundesland
##    <chr>              <chr>                     <dbl> <chr>     <chr>     
##  1 01001000           Flensburg, Stadt        4131.   01001     01        
##  2 01002000           Kiel, Landeshauptstadt 10581    01002     01        
##  3 01003000           Lübeck, Hansestadt      9216.   01003     01        
##  4 01004000           Neumünster, Stadt       3604.   01004     01        
##  5 01051001           Albersdorf               123.   01051     01        
##  6 01051002           Arkebek                    6.08 01051     01        
##  7 01051003           Averlak                    9.75 01051     01        
##  8 01051004           Bargenstedt               14    01051     01        
##  9 01051005           Barkenholm                 5.17 01051     01        
## 10 01051006           Barlt                     16.6  01051     01        
## # ℹ 10,726 more rows
```
…
.panel1-interne_konsistenz3-auto[

``` r
alo_meta %>%
  group_by(landkreis) %>%
* summarise(total_alo = sum(alo))
```
]
 
.panel2-interne_konsistenz3-auto[

```
## # A tibble: 400 × 2
##    landkreis total_alo
##    <chr>         <dbl>
##  1 01001         4131.
##  2 01002        10581 
##  3 01003         9216.
##  4 01004         3604.
##  5 01051         4126.
##  6 01053         5586.
##  7 01054         4491.
##  8 01055         5176.
##  9 01056         9280.
## 10 01057         2848.
## # ℹ 390 more rows
```
…
.panel1-interne_konsistenz3-auto[

``` r
alo_meta %>%
  group_by(landkreis) %>%
  summarise(total_alo = sum(alo)) %>%
* rename(Regionalschluessel = landkreis)
```
]
 
.panel2-interne_konsistenz3-auto[

```
## # A tibble: 400 × 2
##    Regionalschluessel total_alo
##    <chr>                  <dbl>
##  1 01001                  4131.
##  2 01002                 10581 
##  3 01003                  9216.
##  4 01004                  3604.
##  5 01051                  4126.
##  6 01053                  5586.
##  7 01054                  4491.
##  8 01055                  5176.
##  9 01056                  9280.
## 10 01057                  2848.
## # ℹ 390 more rows
```
…
